<?xml version="1.0" encoding="utf-8"?>
<!-- Generator: Adobe Illustrator 17.0.0, SVG Export Plug-In . SVG Version: 6.00 Build 0)  -->
<!DOCTYPE svg PUBLIC "-//W3C//DTD SVG 1.1//EN" "http://www.w3.org/Graphics/SVG/1.1/DTD/svg11.dtd">
<svg version="1.1" id="Layer_1" xmlns="http://www.w3.org/2000/svg" xmlns:xlink="http://www.w3.org/1999/xlink" x="0px" y="0px"
	 width="54px" height="80px" viewBox="0 0 54 80" enable-background="new 0 0 54 80" xml:space="preserve">
<polygon fill="none" stroke="#FFFFFF" stroke-width="3" stroke-linejoin="round" stroke-miterlimit="10" points="42,78.75 
	52.5,1.25 2,1.25 8.5,78.75 25,78.75 27.25,76.75 "/>
<image overflow="visible" enable-background="new    " width="30" height="26" xlink:href="11.png"  transform="matrix(1 0 0 1 -7785.5 -7907)">
</image>
<image overflow="visible" width="30" height="26" xlink:href="11.png"  transform="matrix(1 0 0 1 12 27)">
</image>
</svg>
