<?xml version="1.0" encoding="utf-8"?>
<!-- Generator: Adobe Illustrator 17.0.0, SVG Export Plug-In . SVG Version: 6.00 Build 0)  -->
<!DOCTYPE svg PUBLIC "-//W3C//DTD SVG 1.1//EN" "http://www.w3.org/Graphics/SVG/1.1/DTD/svg11.dtd">
<svg version="1.1" id="Layer_1" xmlns="http://www.w3.org/2000/svg" xmlns:xlink="http://www.w3.org/1999/xlink" x="0px" y="0px"
	 width="231px" height="70px" viewBox="0 0 231 70" enable-background="new 0 0 231 70" xml:space="preserve">
<path fill="none" stroke="#FFFFFF" stroke-width="3" stroke-linejoin="round" stroke-miterlimit="10" d="M224,6c0,0-44-3-51.5-4.5
	S135.5,6,126,6.75S100,11,92,14.5S6.5,47.5,3,47s0,21.5,0,21.5s64-0.5,70.5-4c1.045-0.563,2.966-1.242,5.448-1.986
	C76.176,58.718,88.37,47.841,92.667,46c4.667-2,9.333-3.333,8.667-7.333c-0.667-4-1.333-12.667,1.333-17.333
	C105.333,16.667,116,22,120,24.297s12.667-4.964,16.667-5.63c4-0.667,5.333,6.667,10,5.505c4.667-1.161,6.667-4.839,15.333-5.505
	c8.667-0.667,12.667,6,14.667,5.476s6-3.476,8.667-0.809C188,26,196,21.333,202.667,20s14-3.333,18.667-7.521
	c1.911-1.715,4.939-3.222,7.849-4.406L224,6z"/>
<image overflow="visible" enable-background="new    " width="54" height="11" xlink:href="13.png"  transform="matrix(1 0 0 1 -7797.5 -7899.5)">
</image>
<image overflow="visible" enable-background="new    " width="54" height="11" xlink:href="13.png"  transform="matrix(1 0 0 1 18 45)">
</image>
</svg>
