<?xml version="1.0" encoding="utf-8"?>
<!-- Generator: Adobe Illustrator 17.0.0, SVG Export Plug-In . SVG Version: 6.00 Build 0)  -->
<!DOCTYPE svg PUBLIC "-//W3C//DTD SVG 1.1//EN" "http://www.w3.org/Graphics/SVG/1.1/DTD/svg11.dtd">
<svg version="1.1" id="Layer_1" xmlns="http://www.w3.org/2000/svg" xmlns:xlink="http://www.w3.org/1999/xlink" x="0px" y="0px"
	 width="284px" height="130px" viewBox="0 0 284 130" enable-background="new 0 0 284 130" xml:space="preserve">
<path fill="none" stroke="#FFFFFF" stroke-width="3" stroke-linejoin="round" stroke-miterlimit="10" d="M261.152,89.833
	c-12,0-19.333-6.667-39.333-12s-30-20-46.667-33.333c-11.523-9.218-31.961-15.566-43.484-18.608
	C123.982,25.001,117.418,25,114.652,25c-5.5,0-19-10-24.5-12.5s-15-3.5-20.5-2s-18-9.5-22-9.5s-11,6-12.5,11.5s-11,22.5-18,31
	s-6.5,23-8,25s-3.5,5-3.5,9s-5.5,15-3,13.5s122.5,18.5,130.5,20.5s6,9.5,6,9.5s29-5.5,35.5-2.5s48.5,5.5,48.5,5.5l3.02,1.51
	c4.889-2.26,10.314-3.676,10.314-3.676s14,9.333,19.333,6.667c5.333-2.667,5.333-14,20.667-16.667
	C291.818,109.167,273.152,89.833,261.152,89.833z"/>
<image overflow="visible" enable-background="new    " width="64" height="16" xlink:href="4.png"  transform="matrix(1 0 0 1 -7802.5 -7902)">
</image>
<image overflow="visible" width="64" height="16" xlink:href="4.png"  transform="matrix(1 0 0 1 110 57)">
</image>
</svg>
