<?xml version="1.0" encoding="utf-8"?>
<!-- Generator: Adobe Illustrator 17.0.0, SVG Export Plug-In . SVG Version: 6.00 Build 0)  -->
<!DOCTYPE svg PUBLIC "-//W3C//DTD SVG 1.1//EN" "http://www.w3.org/Graphics/SVG/1.1/DTD/svg11.dtd">
<svg version="1.1" id="Layer_1" xmlns="http://www.w3.org/2000/svg" xmlns:xlink="http://www.w3.org/1999/xlink" x="0px" y="0px"
	 width="81px" height="78px" viewBox="0 0 81 78" enable-background="new 0 0 81 78" xml:space="preserve">
<path fill="none" stroke="#FFFFFF" stroke-width="3" stroke-linejoin="round" stroke-miterlimit="10" d="M11.962,76.75h31.5l36-14
	c0,0-17.5-24.5-18.5-30.5s3-14.5,3-14.5l7-13.5h-28l-5-3h-14.5l-4.5,4l-12.5,1c0,0-3,10.5-4,15s6.5,13.5,6.5,13.5l3,6l-1.5,8
	C10.462,48.75,8.962,72.25,11.962,76.75z"/>
<image overflow="visible" enable-background="new    " width="47" height="11" xlink:href="7.png"  transform="matrix(1 0 0 1 -7794 -7899.5)">
</image>
<image overflow="visible" enable-background="new    " width="47" height="11" xlink:href="7.png"  transform="matrix(1 0 0 1 16 48)">
</image>
</svg>
